<svg xmlns="http://www.w3.org/2000/svg" width="16" height="16" viewBox="0 0 16 16">
    <g fill="#000" fill-rule="nonzero">
        <path d="M14.858 8.038a.39.39 0 0 0-.503-.239l-3.676 1.373 2.971-3.027a.405.405 0 0 0 0-.566l-2.298-2.344a.387.387 0 0 0-.555 0L7.883 6.204 9.517 2.25a.41.41 0 0 0 .002-.306.396.396 0 0 0-.21-.218L6.312.44a.389.389 0 0 0-.514.214L4.185 4.556V.4c0-.22-.176-.4-.393-.4h-3.4A.396.396 0 0 0 0 .4v15.2c0 .22.176.4.392.4h3.4c.048 0 .094-.01.136-.026a.383.383 0 0 0 .133.026c.045 0 .09-.008.135-.024l11.547-4.313a.402.402 0 0 0 .233-.514l-1.118-3.111zM2.319 15.2H.785V.8H3.4V15.2H2.32zM8.642 2.309l-2.23 5.394-.404.977-.404.977-.69 1.668-.417 1.008-.312.756V6.616L6.37 1.332l2.272.977zm-3.138 9.647l.417-1.007 1.154-2.791 3.999-4.075 1.744 1.779-3.891 3.965-1.32 1.344-3.072 3.13.97-2.345zm-.295 2.789l4.15-4.228 4.897-1.829.848 2.361-9.895 3.696z"/>
        <path d="M2.5 14c-.015 0-.03.003-.044.004A.496.496 0 0 0 2 14.5a.499.499 0 0 0 .996.044c.001-.015.004-.03.004-.044a.5.5 0 0 0-.5-.5z"/>
    </g>
</svg>
