<?xml version="1.0" standalone="no"?>
<!DOCTYPE svg PUBLIC "-//W3C//DTD SVG 1.1//EN" "http://www.w3.org/Graphics/SVG/1.1/DTD/svg11.dtd" >
<svg xmlns="http://www.w3.org/2000/svg">
<metadata>Generated by IcoMoon</metadata>
<defs>
<font id="icomoon" horiz-adv-x="1024">
<font-face units-per-em="1024" ascent="960" descent="-64" />
<missing-glyph horiz-adv-x="1024" />
<glyph unicode="&#x20;" horiz-adv-x="512" d="" />
<glyph unicode="&#xe900;" glyph-name="1" horiz-adv-x="881" d="M880.607 789.232c-0.038 0.298-0.075 0.594-0.117 0.892-0.137 0.94-0.295 1.876-0.481 2.806-0.107 0.552-0.234 1.098-0.357 1.644-0.172 0.748-0.337 1.494-0.539 2.234-0.355 1.316-0.749 2.62-1.198 3.904-0.135 0.386-0.265 0.774-0.408 1.156-0.111 0.298-0.234 0.592-0.351 0.888-0.244 0.622-0.497 1.242-0.763 1.856-0.071 0.164-0.147 0.326-0.22 0.488-0.329 0.732-0.671 1.458-1.030 2.176-0.046 0.094-0.097 0.188-0.143 0.282-0.392 0.774-0.804 1.538-1.232 2.294-0.036 0.064-0.075 0.128-0.111 0.192-0.442 0.77-0.901 1.528-1.379 2.278-0.040 0.064-0.081 0.126-0.121 0.188-0.473 0.736-0.965 1.46-1.474 2.174-0.055 0.078-0.109 0.156-0.166 0.234-0.493 0.684-1.002 1.356-1.527 2.018-0.081 0.104-0.16 0.208-0.242 0.31-0.503 0.626-1.022 1.24-1.553 1.846-0.111 0.126-0.216 0.256-0.329 0.382-0.523 0.588-1.064 1.162-1.616 1.73-0.123 0.126-0.238 0.256-0.362 0.382-0.673 0.68-1.359 1.346-2.068 1.996l-132.741 121.454c-0.911 0.834-1.854 1.622-2.811 2.392-0.194 0.156-0.39 0.312-0.586 0.466-2.016 1.572-4.124 3.008-6.323 4.29-0.065 0.038-0.129 0.078-0.194 0.114-1.349 0.782-2.739 1.486-4.144 2.154-0.281 0.132-0.565 0.258-0.848 0.386-1.272 0.58-2.563 1.112-3.874 1.596-0.149 0.054-0.295 0.114-0.444 0.168-3.106 1.118-6.311 1.96-9.585 2.528-0.040 0.006-0.077 0.018-0.117 0.026-0.038 0.006-0.079 0.006-0.117 0.014-3.147 0.528-6.344 0.83-9.583 0.83h-354.198c-35.875 0-65.059-28.9-65.059-64.424v-427.184c-1.121 0.014-2.24 0.042-3.365 0.042-148.233 0-268.83-119.424-268.83-266.216s120.592-266.218 268.83-266.218c119.884 0 221.675 78.118 256.233 185.644h290.997c35.873 0 65.056 28.9 65.056 64.424v596.114c0 2.372-0.206 4.72-0.509 7.050zM717.901 901.712l106.118-97.088h-96.151c-5.495 0-9.967 4.426-9.967 9.868v87.22zM493.581 161.644c-2.535-13.81-6.35-27.18-11.302-40-32.855-85.068-116.137-145.644-213.449-145.644-125.961 0-228.437 101.48-228.437 226.216s102.476 226.216 228.437 226.216c1.125 0 2.244-0.026 3.365-0.042 13.792-0.198 27.289-1.612 40.393-4.14 105.098-20.274 184.679-112.118 184.679-222.036 0-13.844-1.268-27.402-3.686-40.57zM840.726 186.068h-0.002c0-13.468-11.066-24.424-24.664-24.424h-281.517c2.052 13.232 3.116 26.782 3.116 40.572 0 132.038-97.579 241.914-225.072 262.672v430.688c0 13.468 11.066 24.424 24.666 24.424h340.258v-105.506c0-27.498 22.592-49.868 50.36-49.868h112.855v-578.558zM425.945 698.047c-11.656 0-21.108-10.662-21.108-23.814s9.452-23.814 21.108-23.814h314.993c11.656 0 21.108 10.662 21.108 23.814s-9.452 23.814-21.108 23.814h-314.993zM666.791 555.163c0 13.152-9.077 23.814-20.271 23.814h-221.412c-11.193 0-20.271-10.662-20.271-23.814s9.077-23.814 20.271-23.814h221.412c11.193 0 20.271 10.662 20.271 23.814zM741.586 459.907h-197.218c-11.298 0-20.461-10.662-20.461-23.814s9.162-23.814 20.461-23.814h197.218c11.298 0 20.461 10.662 20.461 23.814s-9.162 23.814-20.461 23.814zM719.64 340.837h-129.512c-10.267 0-18.593-10.662-18.593-23.814s8.326-23.814 18.593-23.814h129.512c10.267 0 18.593 10.662 18.593 23.814s-8.326 23.814-18.593 23.814zM253.075 150.326c-8.52 0-16.391 4.167-20.665 10.938l-62.488 98.994c-6.614 10.484-2.728 23.908 8.683 29.988 11.42 6.078 26.029 2.506 32.649-7.976l55.582-88.060h66.487c13.19 0 23.887-9.824 23.887-21.942s-10.697-21.942-23.887-21.942h-80.248zM760.215 564.268c-0.595 1.453-1.336 2.835-2.193 4.121-0.855 1.31-1.855 2.525-2.951 3.621s-2.313 2.096-3.622 2.954c-1.286 0.858-2.691 1.596-4.118 2.191-1.431 0.595-2.929 1.048-4.454 1.358-3.072 0.619-6.24 0.619-9.312 0-1.524-0.31-3.027-0.762-4.454-1.358s-2.81-1.334-4.118-2.191c-1.286-0.858-2.503-1.858-3.599-2.954-1.119-1.096-2.096-2.311-2.977-3.621-0.855-1.286-1.596-2.668-2.191-4.121-0.595-1.429-1.046-2.93-1.355-4.454-0.312-1.524-0.453-3.097-0.453-4.645s0.143-3.12 0.453-4.669c0.31-1.501 0.76-3.001 1.355-4.454 0.595-1.429 1.336-2.811 2.191-4.097 0.881-1.31 1.858-2.525 2.977-3.621 1.096-1.096 2.313-2.096 3.599-2.977 1.31-0.858 2.691-1.596 4.118-2.191s2.929-1.048 4.454-1.358c1.548-0.31 3.12-0.453 4.668-0.453s3.12 0.143 4.644 0.453c1.524 0.31 3.025 0.762 4.454 1.358s2.832 1.334 4.118 2.191c1.31 0.881 2.527 1.882 3.622 2.977s2.096 2.311 2.951 3.621c0.857 1.286 1.598 2.668 2.193 4.097 0.595 1.453 1.046 2.954 1.355 4.454 0.31 1.548 0.476 3.12 0.476 4.669s-0.167 3.12-0.476 4.645c-0.307 1.524-0.76 3.025-1.355 4.454z" />
<glyph unicode="&#xe901;" glyph-name="2" d="M874.261 810.219c-199.654 199.708-524.62 199.708-724.274 0-96.713-96.777-149.988-225.419-149.988-362.234s53.275-265.456 149.988-362.196c99.847-99.874 230.992-149.79 362.136-149.79s262.291 49.916 362.136 149.79c199.654 199.708 199.654 524.683 0.002 724.429zM818.169 141.898c-168.752-168.797-443.339-168.797-612.090 0-81.717 81.739-126.741 190.461-126.741 306.088s45.024 224.349 126.741 306.128c168.752 168.797 443.339 168.757 612.090 0 168.712-168.797 168.712-443.458 0-612.216zM705.221 310.661l-111.736 111.724 111.736 111.724c15.392 15.412 15.392 40.429 0.040 55.883-15.432 15.492-40.415 15.452-55.847 0.040l-111.814-111.803-111.814 111.803c-15.432 15.412-40.415 15.452-55.847-0.040-15.392-15.452-15.392-40.468 0.040-55.883l111.736-111.724-111.736-111.724c-15.432-15.412-15.432-40.429-0.040-55.883 7.697-7.745 17.84-11.579 27.944-11.579s20.208 3.873 27.905 11.541l111.814 111.803 111.814-111.803c7.697-7.707 17.8-11.541 27.905-11.541s20.247 3.873 27.944 11.579c15.388 15.454 15.388 40.47-0.044 55.883z" />
<glyph unicode="&#xe902;" glyph-name="3" horiz-adv-x="1078" d="M909.474 891.73h-134.735v34.135c0 20.478-13.473 34.135-33.686 34.135s-33.686-13.652-33.686-34.135v-34.135h-336.838v34.135c0 20.478-13.473 34.135-33.686 34.135-20.209 0-33.686-13.652-33.686-34.135v-34.135h-134.735c-94.317 0-168.421-75.092-168.421-170.666v-614.398c0-95.574 74.104-170.666 168.421-170.666h741.052c94.317 0 168.421 75.092 168.421 170.666v614.398c0 95.574-74.104 170.666-168.421 170.666zM67.368 721.064c0 54.613 47.159 102.4 101.053 102.4h134.735v-34.135c0-20.479 13.473-34.135 33.686-34.135 20.209 0 33.686 13.652 33.686 34.135v34.135h336.842v-34.135c0-20.479 13.473-34.135 33.686-34.135s33.686 13.652 33.686 34.135v34.135h134.735c53.895 0 101.053-47.787 101.053-102.4v-102.4h-943.163v102.4zM1010.527 106.666c0-54.613-47.159-102.4-101.053-102.4h-741.052c-53.895 0-101.053 47.787-101.053 102.4v443.732h943.159v-443.732zM215.579 97.684c16.168 0 26.949 5.389 37.727 16.168s16.168 26.949 16.168 37.727c0 10.778-5.389 26.949-16.168 37.727-21.557 21.557-53.895 21.557-75.454 0-10.778-10.778-16.168-21.557-16.168-37.727 0-10.778 5.389-26.949 16.168-37.727s21.56-16.168 37.727-16.168zM215.579 313.263c16.168 0 26.949 5.389 37.727 16.168s16.168 26.949 16.168 37.727c0 10.778-5.389 26.949-16.168 37.727-21.557 21.557-53.895 21.557-75.454 0-10.778-10.778-16.168-21.557-16.168-37.727s5.389-26.949 16.168-37.727c10.778-10.778 21.56-16.168 37.727-16.168zM431.158 97.684c16.168 0 26.949 5.389 37.727 16.168s16.168 26.949 16.168 37.727c0 10.778-5.389 26.949-16.168 37.727-21.557 21.557-53.895 21.557-75.454 0-10.778-10.778-16.168-26.949-16.168-37.727s5.389-26.949 16.168-37.727c10.778-10.778 21.56-16.168 37.727-16.168zM431.158 313.263c16.168 0 26.949 5.389 37.727 16.168s16.168 26.949 16.168 37.727c0 10.778-5.389 26.949-16.168 37.727-21.557 21.557-53.895 21.557-75.454 0-10.778-10.778-16.168-26.949-16.168-37.727s5.389-26.949 16.168-37.727c10.778-10.778 21.56-16.168 37.727-16.168zM646.737 97.684c16.168 0 26.949 5.389 37.727 16.168s16.168 21.557 16.168 37.727c0 16.171-5.389 26.949-16.168 37.727-21.557 21.557-53.895 21.557-75.454 0-10.778-10.778-16.168-26.949-16.168-37.727s5.389-26.949 16.168-37.727c10.778-10.778 21.56-16.168 37.727-16.168zM646.737 313.263c16.168 0 26.949 5.389 37.727 16.168s16.168 21.557 16.168 37.727c0 10.778-5.389 26.949-16.168 37.727-21.557 21.557-53.895 21.557-75.454 0-10.778-10.778-16.168-26.949-16.168-37.727s5.389-26.949 16.168-37.727c10.778-10.778 21.56-16.168 37.727-16.168zM862.316 97.684c16.168 0 26.949 5.389 37.727 16.168s16.168 26.949 16.168 37.727c0 10.778-5.389 26.949-16.168 37.727-21.557 21.557-53.895 21.557-75.454 0-10.778-10.778-16.168-21.557-16.168-37.727 0-10.778 5.389-26.949 16.168-37.727s21.56-16.168 37.727-16.168zM862.316 313.263c16.168 0 26.949 5.389 37.727 16.168s16.168 21.557 16.168 37.727c0 10.778-5.389 26.949-16.168 37.727-21.557 21.557-53.895 21.557-75.454 0-10.778-10.778-16.168-26.949-16.168-37.727s5.389-26.949 16.168-37.727c10.778-10.778 21.56-16.168 37.727-16.168z" />
<glyph unicode="&#xe903;" glyph-name="Combined-Shape" d="M1024 448c0 282.31-229.69 512-512 512s-512-229.69-512-512c0-282.31 229.69-512 512-512s512 229.69 512 512zM51.158 448c0 254.121 206.721 460.842 460.842 460.842s460.842-206.721 460.842-460.842c0-254.121-206.721-460.842-460.842-460.842s-460.842 206.721-460.842 460.842zM511.39 216.109l130.333 138.632c9.080 9.658 9.080 25.151 0 34.809s-23.645 9.658-32.725 0l-90.798-96.579v369.215c0 13.682-10.404 24.748-23.267 24.748s-23.267-11.066-23.267-24.748v-369.014l-90.798 96.579c-9.080 9.658-23.645 9.658-32.725 0s-9.080-25.151 0-34.809l130.333-138.632c4.54-4.829 10.404-7.243 16.457-7.243s11.917 2.213 16.457 7.042z" />
<glyph unicode="&#xe904;" glyph-name="doc" horiz-adv-x="788" d="M778.065 744.836l-203.697 205.453c-6.109 6.162-14.581 9.71-23.246 9.71h-508.009c-20.76 0-43.113-16.172-43.113-51.659v-937.031c0-14.777 14.739-29.184 32.173-33.721 0.875-0.23 1.715-0.565 2.626-0.742 2.731-0.547 5.514-0.847 8.315-0.847h701.466c2.801 0 5.584 0.3 8.315 0.847 0.91 0.177 1.75 0.512 2.626 0.742 17.434 4.537 32.173 18.944 32.173 33.721v741.906c0 13.542-1.61 23.534-9.627 31.62zM725.29 748.138h-147.649v148.921l147.649-148.921zM43.113-28.69c-1.243 0-2.363 0.459-3.466 0.865-2.731 1.306-4.639 4.061-4.639 7.309v256.653h717.675v-256.653c0-3.249-1.908-5.985-4.639-7.309-1.103-0.406-2.223-0.865-3.466-0.865h-701.466zM35.009 271.448v636.893c0 3.831 0.578 16.349 8.104 16.349h500.535c-0.578-2.225-1.015-4.52-1.015-6.903v-204.959h203.207c2.363 0 4.621 0.441 6.827 1.024 0-0.265 0.018-0.371 0.018-0.636v-441.768h-717.675zM294.662 171.641c-6.842 8.135-15.444 14.684-25.821 19.572s-22.399 7.351-36.068 7.351h-48.979v-183.795h61.55c2.050 0 5.213 0.292 9.489 0.876 4.26 0.584 8.973 1.897 14.121 3.995 5.148 2.079 10.474 5.199 15.993 9.358s10.474 9.85 14.895 17.092c4.422 7.242 8.053 16.216 10.925 26.942s4.309 23.658 4.309 38.78c0 10.981-1.694 21.67-5.067 32.049-3.389 10.361-8.505 19.627-15.347 27.781zM275.361 56.176c-7.94-12.969-20.882-19.445-38.828-19.445h-26.256v139.159h15.444c12.652 0 22.948-1.879 30.888-5.618s14.234-8.646 18.865-14.72c4.632-6.074 7.746-12.842 9.376-20.32 1.614-7.479 2.421-15.049 2.421-22.692 0-24.607-3.97-43.413-11.91-56.364zM502.419 175.153c-7.094 7.649-15.39 13.444-24.886 17.438s-19.894 5.973-31.174 5.973c-11.28 0-21.677-1.979-31.174-5.973s-17.792-9.789-24.886-17.438c-7.094-7.649-12.668-17.188-16.685-28.635-4.016-11.465-6.025-24.748-6.025-39.851s2.008-28.439 6.025-39.976c4.016-11.536 9.572-21.129 16.685-28.76 7.094-7.649 15.39-13.408 24.886-17.313s19.894-5.848 31.174-5.848c11.28 0 21.677 1.944 31.174 5.848s17.792 9.664 24.886 17.313c7.094 7.649 12.65 17.224 16.685 28.76 4.016 11.536 6.025 24.873 6.025 39.976s-2.008 28.404-6.025 39.851c-4.035 11.447-9.59 20.986-16.685 28.635zM489.713 74.84c-2.571-8.683-6.118-15.726-10.641-21.093-4.542-5.367-9.666-9.236-15.39-11.572-5.743-2.354-11.768-3.53-18.092-3.53-6.156 0-12.030 1.248-17.586 3.78s-10.529 6.49-14.883 11.946c-4.354 5.456-7.789 12.463-10.266 21.093-2.477 8.612-3.81 19.007-3.979 31.203 0.169 12.517 1.539 23.072 4.11 31.684s6.118 15.637 10.641 21.093c4.523 5.456 9.666 9.29 15.39 11.572s11.749 3.406 18.092 3.406c6.156 0 12.012-1.212 17.586-3.655 5.555-2.443 10.529-6.419 14.883-11.946s7.789-12.553 10.266-21.093c2.477-8.541 3.81-18.9 3.979-31.078-0.188-12.517-1.539-23.126-4.11-31.809zM597.396 159.462c4.521 5.456 9.66 9.29 15.381 11.572s11.742 3.406 18.082 3.406c5.646 0 11.067-1.070 16.281-3.174s9.96-5.527 14.237-10.235l21.289 18.044c-7.015 6.49-14.968 11.376-23.84 14.621-8.891 3.263-18.457 4.868-28.717 4.868-11.123 0-21.458-1.979-31.025-5.973-9.585-3.994-17.913-9.789-25.003-17.438s-12.661-17.188-16.675-28.635c-4.014-11.465-6.021-24.748-6.021-39.851s2.007-28.439 6.021-39.976c4.014-11.536 9.566-21.129 16.675-28.76 7.090-7.649 15.381-13.408 24.872-17.313s19.883-5.848 31.156-5.848c10.26 0 19.826 1.623 28.717 4.868 8.891 3.263 16.825 8.131 23.84 14.621l-21.289 17.795c-4.445-4.725-9.36-8.131-14.743-10.235s-11.161-3.174-17.313-3.174c-6.152 0-12.023 1.248-17.576 3.78s-10.523 6.49-14.875 11.946c-4.352 5.456-7.784 12.463-10.26 21.093-2.476 8.612-3.808 19.007-3.977 31.203 0.169 12.517 1.538 23.072 4.108 31.684s6.115 15.655 10.654 21.111zM121.436 723.692h98.462c9.058 0 16.41 5.881 16.41 13.128s-7.352 13.128-16.41 13.128h-98.462c-9.058 0-16.41-5.881-16.41-13.128s7.352-13.128 16.41-13.128zM121.734 644.923h150.378c9.223 0 16.709 5.881 16.709 13.128s-7.485 13.128-16.709 13.128h-150.378c-9.223 0-16.709-5.881-16.709-13.128s7.485-13.128 16.709-13.128zM354.462 644.923c3.413 0 6.827 1.453 9.321 3.831 2.363 2.51 3.807 5.945 3.807 9.38s-1.444 6.87-3.807 9.38c-4.857 4.888-13.785 4.888-18.642 0-2.363-2.51-3.807-5.945-3.807-9.38s1.444-6.87 3.807-9.38c2.494-2.378 5.908-3.831 9.321-3.831zM438.482 644.923h147.036c10.145 0 18.379 5.881 18.379 13.128s-8.234 13.128-18.379 13.128h-147.036c-10.145 0-18.379-5.881-18.379-13.128s8.234-13.128 18.379-13.128zM108.833 404.949c-2.363-2.51-3.807-5.945-3.807-9.38s1.444-6.87 3.807-9.38c2.494-2.378 5.908-3.831 9.321-3.831s6.827 1.453 9.321 3.831c2.363 2.51 3.807 5.945 3.807 9.38 0 3.567-1.444 6.87-3.807 9.38-4.857 4.888-13.785 4.888-18.642 0zM349.21 408.615h-147.036c-10.145 0-18.379-5.881-18.379-13.128s8.234-13.128 18.379-13.128h147.036c10.145 0 18.379 5.881 18.379 13.128s-8.234 13.128-18.379 13.128zM689.231 671.179h-39.385c-10.87 0-19.692-5.881-19.692-13.128s8.822-13.128 19.692-13.128h39.385c10.87 0 19.692 5.881 19.692 13.128s-8.822 13.128-19.692 13.128zM122.53 539.897h385.094c9.662 0 17.504 5.881 17.504 13.128s-7.842 13.128-17.504 13.128h-385.094c-9.662 0-17.504-5.881-17.504-13.128s7.842-13.128 17.504-13.128zM666.256 566.154h-98.462c-9.058 0-16.41-5.881-16.41-13.128s7.352-13.128 16.41-13.128h98.462c9.058 0 16.41 5.881 16.41 13.128s-7.352 13.128-16.41 13.128zM122.53 461.128h70.017c9.662 0 17.504 5.881 17.504 13.128s-7.842 13.128-17.504 13.128h-70.017c-9.662 0-17.504-5.881-17.504-13.128s7.842-13.128 17.504-13.128zM455.111 487.385h-175.043c-9.662 0-17.504-5.881-17.504-13.128s7.842-13.128 17.504-13.128h175.043c9.662 0 17.504 5.881 17.504 13.128s-7.842 13.128-17.504 13.128zM665.958 487.385h-150.378c-9.223 0-16.709-5.881-16.709-13.128s7.485-13.128 16.709-13.128h150.378c9.223 0 16.709 5.881 16.709 13.128s-7.485 13.128-16.709 13.128z" />
</font></defs></svg>