<svg xmlns="http://www.w3.org/2000/svg" width="59" height="56" viewBox="0 0 59 56">
    <g fill="#F17598" fill-rule="nonzero">
        <path d="M57.849 21.653h-.46c-.442-5.22-3.84-9.605-8.51-11.472C44.617 4.036 37.523 0 29.5 0 21.48 0 14.386 4.034 10.123 10.18c-4.67 1.867-8.066 6.25-8.509 11.473h-.46a1.156 1.156 0 0 0 0 2.31h.46a13.605 13.605 0 0 0 5.927 10.113l3.27 20.945c.087.562.57.979 1.14.979h8.653c.637 0 1.154-.518 1.154-1.155 0-4.275 3.474-7.751 7.742-7.751 4.269 0 7.742 3.479 7.742 7.75 0 .638.517 1.156 1.155 1.156h8.653c.567 0 1.051-.415 1.138-.979l3.27-20.945a13.602 13.602 0 0 0 5.926-10.112h.462a1.156 1.156 0 0 0 .003-2.31zM29.501 2.311c6.22 0 11.828 2.688 15.721 6.964-.447-.045-.901-.069-1.361-.069-7.1 0-12.938 5.486-13.527 12.445h-1.668c-.588-6.959-6.425-12.444-13.527-12.444-.459 0-.912.023-1.36.07C17.674 5 23.28 2.31 29.501 2.31zm21.271 21.208l-1.426 9.146a11.161 11.161 0 0 1-5.485 1.433c-6.218 0-11.277-5.064-11.277-11.29 0-6.225 5.06-11.289 11.277-11.289 1.23 0 2.41.205 3.515.568a21.144 21.144 0 0 1 3.396 11.432zm-42.54 0a21.17 21.17 0 0 1 3.395-11.432 11.2 11.2 0 0 1 3.515-.568c6.219 0 11.277 5.064 11.277 11.29 0 6.225-5.058 11.29-11.277 11.29-1.99 0-3.859-.525-5.483-1.433L8.23 23.52zm-4.366-.71c0-3.464 1.57-6.565 4.03-8.639a23.478 23.478 0 0 0-1.973 9.437c0 .06.005.12.014.177L7 30.598a11.242 11.242 0 0 1-3.134-7.79zm42.197 30.88h-6.577c-.574-5.006-4.832-8.906-9.986-8.906-5.152 0-9.409 3.9-9.984 8.906h-6.578l-2.85-18.266a13.5 13.5 0 0 0 5.052.986c7.101 0 12.939-5.487 13.527-12.446h1.667c.589 6.96 6.427 12.446 13.527 12.446 1.787 0 3.49-.357 5.052-.986l-2.85 18.266zm5.943-23.092l1.062-6.813a1.13 1.13 0 0 0 .014-.177c0-3.354-.706-6.545-1.971-9.438a11.271 11.271 0 0 1 4.031 8.639 11.265 11.265 0 0 1-3.136 7.79z"/>
        <path d="M19 17.5c0-2.48-2.019-4.5-4.5-4.5S10 15.017 10 17.5c0 2.481 2.018 4.5 4.5 4.5 2.48 0 4.5-2.018 4.5-4.5zm-4.501 2.285c-.276 0-.537-.057-.782-.146a2.857 2.857 0 0 0 2.64-2.84c0-.262-.047-.513-.115-.755.333.397.542.902.542 1.46a2.286 2.286 0 0 1-2.285 2.28zm-.356-2.986a.648.648 0 1 1-.647-.648.65.65 0 0 1 .647.648zM38 17.5c0 2.48 2.016 4.5 4.5 4.5 2.481 0 4.5-2.017 4.5-4.5 0-2.482-2.017-4.5-4.5-4.5S38 15.02 38 17.5zm2.85-.701c0-.356.29-.648.647-.648a.648.648 0 0 1 0 1.294.647.647 0 0 1-.648-.646zm1.65 2.986c-.275 0-.537-.057-.782-.146a2.855 2.855 0 0 0 2.638-2.84c0-.262-.047-.513-.113-.756.333.397.54.902.54 1.46a2.283 2.283 0 0 1-2.283 2.282zM35.832 37h-6.664c-.644 0-1.168.448-1.168 1 0 .551.524 1 1.168 1h6.664c.645 0 1.168-.449 1.168-1 0-.552-.523-1-1.168-1z"/>
    </g>
</svg>
