<svg xmlns="http://www.w3.org/2000/svg" xmlns:xlink="http://www.w3.org/1999/xlink" width="115" height="131" viewBox="0 0 115 131">
    <defs>
        <path id="a" d="M.019.003h6.835v2.682H.019z"/>
        <path id="c" d="M.022.422h92.699V131H.022z"/>
        <path id="e" d="M0 .07h6.729v2.696H0z"/>
    </defs>
    <g fill="none" fill-rule="evenodd">
        <g transform="translate(108 22)">
            <mask id="b" fill="#fff">
                <use xlink:href="#a"/>
            </mask>
            <path fill="#20272B" d="M5.97.14c.244.043.476.18.884.344C6.121 1.486 5.32 1.74 4.54 1.956c-1.051.293-2.126.493-3.198.7-.257.047-.558.047-.79-.063-.22-.105-.507-.363-.528-.587-.034-.324.096-.712.25-1.01C.366.818.624.705.825.638 2.513.101 4.221-.184 5.971.14" mask="url(#b)"/>
        </g>
        <path fill="#20272B" d="M113.206 17.007c.192-.05.42.164.794.324-.44 1.257-1.12 1.75-1.796 2.197-1.207.79-2.441 1.521-3.671 2.257a1.667 1.667 0 0 1-.676.209c-.392.05-.713-.2-.813-.702-.07-.338-.063-.805.066-1.088.17-.383.455-.746.754-.95 1.692-1.128 3.498-1.78 5.342-2.247M107 12c.021.995-.36 1.67-.832 2.255-1.18 1.47-2.414 2.894-3.627 4.333-.036.044-.084.082-.128.12-.38.323-.813.383-1.117.156-.318-.243-.4-.687-.147-1.122.202-.355.433-.701.704-1.011a276.655 276.655 0 0 1 3.392-3.832c.596-.664.611-.653 1.754-.899M103.877 44.493l.123.011c-.18 1.414-.234 2.85-.57 4.232-.45 1.864-1.07 3.7-1.701 5.52-.324.94-.829 1.834-1.632 2.509-.172.144-.574.291-.673.214-.217-.172-.447-.497-.422-.738.074-.738.23-1.472.418-2.193.336-1.263.714-2.512 1.09-3.767.964-3.199 1.264-6.444.784-9.752-.09-.601-.041-1.238.049-1.844.037-.244.32-.559.57-.652.36-.14.62.194.709.477.378 1.184.763 2.369 1.034 3.576.172.78.155 1.603.22 2.407M99.472 39.254c.182.413.388.843.432 1.28.392 4.097-.365 7.943-3.212 11.316-.567.667-.57.663-1.657 1.15 0-.35-.088-.684.015-.963.433-1.172.868-2.347 1.4-3.483.809-1.729 1.265-3.521 1.48-5.373.122-1.062.24-2.12.372-3.179.027-.222.051-.466.178-.646a.988.988 0 0 1 .56-.353c.118-.028.376.127.432.251"/>
        <path fill="#FBBC08" d="M80.2 39.35c.898.693 1.056 1.333.393 2.24a11.804 11.804 0 0 1-4.234 3.6c-.573.29-1.179.526-1.778.77-.126.052-.287.031-.413.04-.072-.103-.18-.19-.167-.254.199-1.037.303-2.103.65-3.092.608-1.732 1.847-2.94 3.704-3.512.653-.203 1.267-.233 1.844.208M69.96 52c.011.312.067.59.024.857-.517 3.047-1.069 6.086-1.57 9.132-.21 1.292-.333 2.59-.48 3.89-.325 2.95-.651 5.9-.957 8.85-.1.942-.199 1.892-.207 2.838-.031 4.69-.127 9.38-.012 14.068.092 3.67.453 7.34.688 11.006.015.23-.032.46-.048.664-1.716.601-4.075.831-6.32.616-.063-.3-.21-.635-.198-.961.167-4.446.357-8.891.54-13.34.04-1.065.096-2.134.1-3.203.023-3.855.087-7.714.02-11.574-.124-7.206-1.176-14.297-3.309-21.236-.115-.379-.147-.783-.231-1.24 2.073.045 4.028.164 5.974.104 1.954-.059 3.9-.3 5.986-.471"/>
        <g transform="translate(14)">
            <mask id="d" fill="#fff">
                <use xlink:href="#c"/>
            </mask>
            <path fill="#20272B" d="M39.261 48.01c.018-.155.055-.229.03-.27-1.503-2.706-3.592-4.774-6.477-5.899-.797-.31-1.681-.45-2.537-.538-.6-.063-.924.479-.793 1.084.244 1.098.859 1.902 1.794 2.503a23.435 23.435 0 0 0 7.357 3.146c.2.048.43-.015.626-.026m3.264 64.124c0-.956.036-1.822-.01-2.685-.048-.907.036-1.844-.357-2.788-.735.207-1.438.17-2.213.745.011 1.74-.065 3.463.353 5.17.862.13 1.521-.206 2.227-.442m3.253 8.174c-.05-1.832-.095-3.591-.153-5.35-.007-.17-.095-.332-.142-.494-1.128-.085-2.929.236-4.202.748-.215 1.553-.19 4.705.062 5.822 1.444-.317 2.969-.19 4.435-.726m1.856 7.751c.287-1.866.233-3.684-.146-5.03-.96-.066-1.914.004-2.95.332.138 1.645-.099 3.223.203 4.724 1.106.708 1.994.044 2.893-.026m4.508-8.54c.196-2.017.047-5.088-.309-6.235-1.685.155-3.38.357-4.985.752-.076.232-.15.34-.142.442.15 1.63.298 3.26.48 4.886.03.262.215.506.357.819.811-.081 1.557-.133 2.292-.243.786-.115 1.565-.284 2.307-.421m2.722-67.04c.04-.266-.011-.542-.022-.852-1.91.17-3.693.41-5.484.468-1.783.06-3.573-.058-5.472-.103.076.454.105.856.21 1.232 1.955 6.895 2.92 13.942 3.032 21.103.062 3.835.003 7.67-.018 11.5-.004 1.063-.055 2.125-.091 3.183-.168 4.421-.342 8.838-.495 13.256-.011.324.124.656.182.955 2.056.214 4.217-.015 5.79-.612.014-.203.057-.431.043-.66-.215-3.644-.546-7.29-.63-10.937-.105-4.657-.018-9.318.011-13.979.007-.94.099-1.884.19-2.82.28-2.932.578-5.864.876-8.795.135-1.29.248-2.581.44-3.864.46-3.028.965-6.048 1.438-9.075m3.006 56.76c-.033-1.53.076-2.972-.394-4.344-1.513.004-1.513.004-2.688.513.367 1.36.112 2.835.549 4.266.917.088 1.714-.136 2.533-.435m2.663-2.899c.029-.612-.12-1.165-.473-1.648-.266-.361-.626-.498-1.15-.162a474.4 474.4 0 0 0 .145 3.407c.015.34.055.675.085.973.607.318.945-.025 1.386-.39 0-.778-.022-1.483.007-2.18m5.865-64.458c.765-1.107.582-1.889-.455-2.733-.665-.538-1.375-.501-2.128-.254-2.143.697-3.573 2.171-4.276 4.284-.4 1.206-.52 2.508-.75 3.773-.014.077.11.184.194.31.145-.012.331.014.477-.048.691-.3 1.39-.587 2.052-.941a13.844 13.844 0 0 0 4.886-4.391m22.535 12.953a37.157 37.157 0 0 0 1.099-10.697 80.276 80.276 0 0 0-.394-5.287c-.16-1.52-.316-3.061-.69-4.536-1.434-5.694-3.708-11.04-6.743-16.047-.67-1.1-1.481-2.113-2.249-3.15-1.55-2.09-3.591-3.698-5.337-5.59-2.202-2.385-5.095-3.68-7.791-5.287-.44-.265-.979-.362-1.481-.505-2.93-.848-5.916-1.247-8.958-1.295-4.149-.062-8.231.458-12.314 1.176-7.47 1.313-14.482 3.839-21.05 7.704-7.117 4.184-12.45 9.989-16.053 17.463-.51 1.058-1.016 2.124-1.561 3.164-.801 1.526-1.303 3.145-1.569 4.845-.32 2.039-.669 4.07-.942 6.114a61.124 61.124 0 0 0-.404 4.398c-.164 2.84.146 5.653.557 8.456.575 3.864 1.503 7.618 3.267 11.136 2.307 4.594 5.327 8.514 9.61 11.43 5.625 3.835 11.717 6.203 18.51 6.664 1.332.092 2.649.376 3.977.538.95.114 1.64.612 2.07 1.435.492.936.957 1.891 1.343 2.875.367.926.604 1.907.931 2.85.077.218.055.617.546.543.223-.679.175-1.387.193-2.083.146-5.13.28-10.259.422-15.388.026-.822.07-1.648.124-2.474.135-2.18.178-4.355-.055-6.538-.185-1.755-.356-3.518-.433-5.284-.13-3.105-.99-6.032-1.943-8.949-.262-.8-.706-1.276-1.557-1.464-1.248-.273-2.478-.645-3.704-1.018a22.601 22.601 0 0 1-6.564-3.23c-1.296-.918-2.143-2.142-2.55-3.683-.681-2.604.763-4.34 3.401-4.101.116.007.233.033.346.048 1.346.166 2.601.605 3.802 1.228 2.282 1.187 4.098 2.898 5.557 5.007a34.55 34.55 0 0 1 1.746 2.854c.35.627.812.96 1.521 1.003 1.332.082 2.667.288 3.999.274 1.743-.023 3.49-.13 5.218-.355.943-.125 1.99-.121 2.838-.889.255-1.364.513-2.75.768-4.14.327-1.774 1.033-3.378 2.154-4.779 1.492-1.87 3.442-2.917 5.778-3.326 2.547-.443 5.902 2.507 5.142 5.62-.2.818-.564 1.533-1.063 2.2-2.172 2.907-4.978 4.927-8.34 6.18-.647.24-1.299.48-2.023.746-.2 1.15-.415 2.241-.582 3.34-.451 2.969-.928 5.937-1.306 8.917-.313 2.455-.459 4.93-.761 7.385-.371 3.05-.633 6.095-.604 9.17.033 3.128.007 6.254.007 9.381v3.533l.383.055c.465-1.865 1.156-3.676 1.222-5.634.044-1.173.6-2.017 1.535-2.618.488-.314 1.034-.538 1.558-.797 5.898-2.95 11.786-5.906 16.967-10.11 1.958-1.59 3.868-3.223 5.563-5.092.82-.908 1.54-1.921 2.198-2.961a41.387 41.387 0 0 0 3.38-6.586c.506-1.247.961-2.534 1.289-3.839m3.362-15.494c.764 5.612.513 11.173-.855 16.674a24.045 24.045 0 0 1-1.747 4.805 191.18 191.18 0 0 1-2.805 5.494c-.859 1.619-1.98 3.053-3.246 4.37-4.301 4.469-9.202 8.134-14.617 11.087-2.816 1.534-5.68 2.984-8.554 4.407-.779.384-1.204.855-1.186 1.733.018.708-.011 1.416.007 2.124.098 3.536.211 7.072.313 10.609.014.523 0 1.05 0 1.589.568.258 1.037.494 1.517.685.597.24.906.679 1.074 1.29.44 1.627.411 3.272.229 4.92-.025.23-.069.505-.21.66-.634.686-.572 1.508-.525 2.33.08 1.354.2 2.703.247 4.057.026.76.004 1.534-.101 2.286-.131.94-.644 1.626-1.583 1.925-.27.084-.52.221-.877.376.03.674.062 1.312.09 1.95.044 1.118.132 2.239.117 3.356-.007.575-.178 1.154-.313 1.722-.182.763-.716 1.18-1.437 1.39-2.402.7-4.8 1.423-7.325 1.5-.345.012-.69.089-1.033.16-1.83.387-3.587.025-5.313-.565-1.03-.354-1.64-1.103-1.724-2.216-.051-.7-.018-1.412-.022-2.116v-2.552c-.546-.107-1.048-.188-1.54-.31-1.01-.243-1.633-.907-1.782-1.936-.11-.756-.128-1.53-.116-2.293.01-1.236.076-2.467.123-3.736-.24-.133-.426-.305-.637-.343-1.022-.18-1.484-.88-1.64-1.821-.263-1.567-.55-3.13-.503-4.738.044-1.446.655-2.482 1.947-3.083.68-.317 1.383-.586 2.186-.926a632.695 632.695 0 0 0-.45-3.097c-.433-2.913-.852-5.83-1.3-8.739-.203-1.335-.465-2.662-.702-4.012-.993-.42-1.965-.553-2.943-.608-4.942-.262-9.643-1.49-14.155-3.522-3.268-1.467-6.335-3.296-8.944-5.77-2.983-2.829-5.57-5.989-7.452-9.732C2.42 64.57 1.222 60.178.611 55.584c-.367-2.751-.647-5.502-.578-8.282.094-3.905.604-7.754 1.437-11.564a8.9 8.9 0 0 1 .324-1.194c1.68-4.669 3.697-9.156 6.578-13.216C13.02 14.787 19.176 10.199 26.297 6.78c4.82-2.312 9.868-3.857 15.067-4.926C46.34.83 51.36.225 56.45.48c2.445.122 4.887.324 7.245 1.021 3.307.977 6.48 2.279 9.351 4.252.291.199.586.39.855.612 5.753 4.66 10.643 10.03 13.65 16.973 1.567 3.621 3.124 7.242 3.969 11.121.35 1.607.553 3.249.775 4.882m-44.272 71.63c.142-1.677.022-3.274-.29-4.948-1.394-.107-2.66.096-3.89.494-.048 2.932.101 4.164.632 5.218 1.176-.162 2.355-.354 3.548-.763m5.218 16.38c.05-.912.142-1.782.138-2.652-.007-.848.19-1.733-.207-2.53-1.445 0-3.275.336-4.381.815.073 1.527.153 3.094.24 4.85 1.547-.012 2.849-.049 4.21-.484m1.175-2.795c.044.91-.17 1.848.182 2.776.92.004 1.765-.066 2.555-.763.032-1.66.178-3.389-.04-5.176-1.001-.097-1.867.07-2.704.523 0 .907-.03 1.774.007 2.64m1.758-5.7c.349-3.054.338-5.108-.058-6.291-.877.136-1.776.273-2.831.435.083 1.995.149 3.757.233 5.516.01.229.102.45.163.7.928.23 1.71-.154 2.493-.36m-7.292-12.899c.106 1.49.2 2.887.313 4.285.015.166.123.32.229.579 1.423-.233 2.846-.469 4.334-.716.221-1.39-.051-2.721-.08-4.052-.008-.262-.16-.524-.27-.87-1.532.343-3.056.203-4.526.774m8.489 6.486c0 2.002-.004 3.765.01 5.524 0 .202.12.405.198.645.669-.11 1.218-.232 1.611-.664.328-2.703.371-4.734.11-5.88l-1.93.375" mask="url(#d)"/>
        </g>
        <path fill="#FBBC08" d="M52.326 47.981a23.569 23.569 0 0 1-7.474-3.259c-.95-.622-1.575-1.455-1.823-2.594-.133-.626.196-1.187.806-1.123.869.092 1.767.237 2.577.558 2.93 1.166 5.053 3.308 6.58 6.113.025.042-.012.118-.03.279-.2.011-.433.076-.636.026"/>
        <path fill="#20272B" d="M25.71 30.023c.145.06.309.372.288.55a60.099 60.099 0 0 1-.438 3.024c-.302 1.835-.538 3.68-.58 5.549-.017.711-.147 1.43-.304 2.125-.12.527-.494.794-.82.715-.356-.082-.572-.353-.64-.733-.107-.587-.179-1.182-.216-1.434.157-2.63.37-4.905.939-7.114.24-.926.483-1.87 1.193-2.524.143-.132.424-.226.579-.158"/>
        <path fill="#20272B" d="M26.813 23.133c.167.149.224.563.163.814a9.878 9.878 0 0 1-.608 1.716c-1.485 3.282-2.541 6.71-3.275 10.228-.32 1.54-.452 3.123-.692 4.682-.09.594-.19 1.198-.372 1.769-.152.48-.59.715-.98.646-.472-.08-.791-.376-.867-.825-.114-.654-.144-1.324-.182-1.7a35.475 35.475 0 0 1 2.17-10.057c.657-1.761 1.462-3.473 2.287-5.162.342-.696.893-1.297 1.395-1.902.232-.281.638-.49.961-.209"/>
        <path fill="#FBBC08" d="M104.966 44.25a37.555 37.555 0 0 1-1.116 10.839c-.333 1.322-.795 2.626-1.309 3.889a41.928 41.928 0 0 1-3.434 6.672c-.669 1.054-1.4 2.081-2.232 3-1.723 1.894-3.663 3.55-5.652 5.16-5.263 4.258-11.244 7.254-17.236 10.243-.532.262-1.086.49-1.582.807-.95.609-1.515 1.464-1.559 2.653-.067 1.983-.769 3.818-1.242 5.708l-.388-.056v-3.579c0-3.168.026-6.336-.008-9.504-.03-3.116.237-6.202.614-9.292.307-2.487.455-4.994.772-7.482.385-3.02.869-6.026 1.327-9.034.17-1.113.388-2.219.592-3.385.736-.268 1.397-.511 2.055-.754 3.415-1.27 6.265-3.318 8.472-6.262.506-.676.876-1.4 1.079-2.23.773-3.153-2.635-6.142-5.223-5.693-2.373.414-4.354 1.475-5.87 3.37-1.138 1.42-1.855 3.044-2.187 4.841-.26 1.408-.522 2.813-.78 4.196-.862.777-1.926.773-2.884.9-1.755.228-3.53.336-5.3.359-1.353.014-2.71-.195-4.062-.277-.72-.045-1.19-.381-1.545-1.016a34.774 34.774 0 0 0-1.774-2.892c-1.483-2.137-3.327-3.87-5.645-5.073-1.22-.631-2.495-1.076-3.862-1.244-.115-.015-.233-.041-.351-.049-2.68-.243-4.147 1.517-3.456 4.155.414 1.561 1.275 2.802 2.59 3.732a22.988 22.988 0 0 0 6.669 3.272c1.246.378 2.495.755 3.763 1.032.865.19 1.315.672 1.582 1.483.968 2.955 1.84 5.921 1.974 9.067.077 1.79.25 3.575.44 5.353.236 2.212.192 4.416.055 6.624-.056.837-.1 1.674-.126 2.507-.144 5.197-.28 10.393-.428 15.59-.019.706.029 1.423-.196 2.111-.5.074-.478-.329-.555-.55-.333-.956-.573-1.95-.946-2.888-.392-.997-.865-1.965-1.364-2.913-.436-.833-1.139-1.338-2.103-1.454-1.35-.164-2.687-.452-4.04-.545-6.901-.467-13.089-2.866-18.803-6.751-4.35-2.955-7.418-6.927-9.762-11.581-1.793-3.564-2.735-7.368-3.319-11.283-.418-2.839-.732-5.69-.566-8.566.09-1.49.215-2.982.41-4.457.278-2.07.633-4.128.958-6.194.27-1.722.78-3.362 1.593-4.91.555-1.053 1.069-2.132 1.586-3.205 3.66-7.572 9.078-13.453 16.307-17.693 6.672-3.915 13.795-6.475 21.383-7.804 4.148-.729 8.295-1.255 12.508-1.192 3.09.048 6.125.452 9.1 1.311.51.146 1.057.243 1.505.512 2.738 1.629 5.677 2.94 7.914 5.358 1.774 1.916 3.847 3.545 5.422 5.663.78 1.05 1.604 2.077 2.284 3.19 3.083 5.074 5.393 10.491 6.85 16.26.38 1.494.54 3.055.702 4.595.192 1.777.325 3.567.399 5.357M26.07 29.24c-.766.65-1.028 1.587-1.287 2.506-.613 2.194-.842 4.454-1.012 7.065.04.25.118.84.233 1.424.073.377.307.646.69.728.352.078.755-.186.884-.71.17-.691.31-1.404.33-2.11.044-1.857.299-3.688.624-5.51.18-.998.347-2 .473-3.004.022-.176-.155-.486-.31-.546-.167-.067-.47.026-.625.157m-3.745 7.718c.714-3.456 1.741-6.821 3.187-10.045.244-.542.45-1.11.59-1.686.06-.246.005-.653-.158-.799-.314-.276-.71-.071-.935.205-.488.594-1.024 1.185-1.357 1.868-.802 1.659-1.585 3.34-2.225 5.07a35.119 35.119 0 0 0-2.11 9.878c.037.37.066 1.027.177 1.67.074.44.385.732.843.81.38.068.806-.164.953-.635.178-.56.274-1.154.363-1.737.233-1.531.362-3.085.672-4.599m78.804 3.819c.432 3.183.163 6.305-.706 9.384-.34 1.207-.68 2.41-.983 3.624-.17.695-.31 1.4-.377 2.11-.022.232.185.546.38.71.09.075.452-.067.607-.205.724-.65 1.179-1.51 1.47-2.414.57-1.752 1.128-3.519 1.535-5.312.303-1.33.351-2.712.514-4.072l-.111-.011c-.06-.774-.045-1.566-.2-2.317-.244-1.161-.591-2.301-.931-3.44-.082-.273-.314-.595-.64-.46-.225.09-.48.393-.514.628-.081.583-.125 1.195-.044 1.775m-.396 1.079c-.04-.463-.232-.92-.402-1.356-.052-.13-.292-.295-.403-.265a.911.911 0 0 0-.521.373c-.119.191-.14.449-.167.684-.122 1.12-.233 2.242-.347 3.366-.2 1.961-.625 3.859-1.379 5.69-.495 1.203-.902 2.447-1.305 3.687-.096.295-.014.65-.014 1.02 1.012-.516 1.016-.512 1.545-1.218 2.653-3.572 3.36-7.644 2.993-11.981"/>
        <path fill="#20272B" d="M11 58c-.143.942-.514 1.53-.987 2.06-.95 1.073-2.09 1.941-3.35 2.676-.189.11-.403.21-.621.243-.336.05-.686.03-.876-.317-.158-.294-.275-.607-.004-.884a7.86 7.86 0 0 1 .876-.749c.97-.731 1.941-1.463 2.928-2.174.404-.29.83-.554 1.272-.785.165-.087.408-.043.762-.07M9 53.562c-.384.383-.74.837-1.15 1.13a155.459 155.459 0 0 1-4.466 3.055c-.29.188-.634.249-.953.253-.144 0-.354-.262-.41-.476-.056-.205.007-.54.092-.746.094-.223.265-.406.427-.52 1.82-1.29 3.63-2.618 5.622-3.233.24-.075.508.04.761.065.027.158.05.314.077.472"/>
        <g transform="translate(0 50)">
            <mask id="f" fill="#fff">
                <use xlink:href="#e"/>
            </mask>
            <path fill="#20272B" d="M6.712.538c.08.363-.133.624-.42.772-.36.19-.734.375-1.124.476a90.804 90.804 0 0 1-3.876.939c-.38.084-.79.013-1.186.013-.035-.1-.07-.2-.106-.298.206-.208.386-.456.625-.61C2.127.86 3.799.397 5.52.092c.148-.027.309-.033.454.004.287.067.647.057.738.442" mask="url(#f)"/>
        </g>
    </g>
</svg>
