<svg xmlns="http://www.w3.org/2000/svg" width="35" height="36" viewBox="0 0 35 36">
    <g fill="none" fill-rule="nonzero">
        <ellipse cx="17.5" cy="18" fill="#FAA930" rx="17.5" ry="18"/>
        <g fill="#FFF">
            <path d="M22.747 26.015c-.178-.068-.36.096-.404.364l-.333 2c-.045.268.064.539.243.606.027.01.054.015.08.015.15 0 .286-.152.324-.378l.333-2c.045-.268-.064-.54-.243-.607zM18.429 20c.05 0 .099-.008.145-.025l4.19-1.518c.195-.07.287-.265.207-.435-.08-.17-.304-.25-.498-.18l-4.044 1.464-10.667-3.862v-.11c0-.185-.17-.334-.381-.334-.21 0-.381.15-.381.333v.334c0 .135.093.256.235.308l11.048 4a.424.424 0 0 0 .146.025zM22.96 22.814c-.09-.156-.315-.22-.501-.143-.712.296-1.902.641-3.584.688v-2.833c0-.174-.168-.315-.375-.315s-.375.141-.375.315v2.83c-4.656-.125-6.159-2.5-6.375-2.895v-2.145c0-.175-.168-.316-.375-.316s-.375.141-.375.316v2.21c0 .04.009.08.027.118.065.137 1.66 3.356 7.473 3.356 2.031 0 3.455-.415 4.291-.763.186-.077.262-.266.17-.423z"/>
            <path d="M23.5 26c-.277 0-.5.269-.5.6v1.8c0 .331.223.6.5.6s.5-.269.5-.6v-1.8c0-.331-.223-.6-.5-.6z"/>
            <path d="M28.633 14.4a.363.363 0 0 0-.366.36v.119l-4.4 1.778v-.65l4.906-1.994A.36.36 0 0 0 29 13.68a.36.36 0 0 0-.226-.333L18.14 9.027a.373.373 0 0 0-.28 0l-10.633 4.32A.36.36 0 0 0 7 13.68c0 .146.09.277.227.333l10.633 4.32a.369.369 0 0 0 .28 0l3.845-1.562a.357.357 0 0 0 .199-.47.37.37 0 0 0-.48-.195L18 17.61l-9.675-3.93L18 9.75l9.674 3.93-4.21 1.71-4.031-1.478a.845.845 0 0 0 .034-.232c0-.606-.645-1.08-1.467-1.08-.822 0-1.467.474-1.467 1.08 0 .605.645 1.08 1.467 1.08.367 0 .694-.098.949-.257l4.184 1.534v8.869a1.08 1.08 0 0 0-.733 1.014c0 .595.494 1.08 1.1 1.08.606 0 1.1-.485 1.1-1.08a1.08 1.08 0 0 0-.733-1.014v-2.043c1.052-.78 1.43-1.82 1.446-1.865a.358.358 0 0 0 .02-.118v-2.52a.363.363 0 0 0-.366-.36.363.363 0 0 0-.367.36v2.453a3.675 3.675 0 0 1-.733 1.088v-4.466l4.906-1.982A.36.36 0 0 0 29 15.12v-.36a.363.363 0 0 0-.367-.36zM18 14.04c-.448 0-.733-.213-.733-.36s.285-.36.733-.36.733.213.733.36-.285.36-.733.36zm5.5 12.24a.364.364 0 0 1-.367-.36c0-.198.165-.36.367-.36.202 0 .367.162.367.36 0 .198-.165.36-.367.36z"/>
            <path d="M23.657 26.379c-.045-.268-.226-.431-.404-.364-.179.067-.288.339-.243.607l.333 2c.038.226.174.378.323.378a.223.223 0 0 0 .081-.015c.179-.067.288-.338.243-.606l-.333-2z"/>
        </g>
    </g>
</svg>
