<svg xmlns="http://www.w3.org/2000/svg" width="68" height="63" viewBox="0 0 68 63">
    <g fill="#F17598" fill-rule="nonzero">
        <path d="M19 21c-3.86 0-7 3.14-7 7s3.14 7 7 7 7-3.14 7-7-3.14-7-7-7zm0 11.667A4.671 4.671 0 0 1 14.333 28 4.671 4.671 0 0 1 19 23.333 4.671 4.671 0 0 1 23.667 28 4.671 4.671 0 0 1 19 32.667zM43 39c-3.308 0-6 2.692-6 6s2.692 6 6 6 6-2.692 6-6-2.692-6-6-6zm0 9.6a3.604 3.604 0 0 1-3.6-3.6c0-1.985 1.615-3.6 3.6-3.6s3.6 1.615 3.6 3.6-1.615 3.6-3.6 3.6z"/>
        <path d="M67.3.087a1.1 1.1 0 0 0-.433-.077V0h-47.6v.01c-.147 0-.294.019-.434.078-.423.177-.7.595-.7 1.057V12.6c0 .304.12.596.332.81l1.35 1.363a35.013 35.013 0 0 1-13.76-2.104 1.126 1.126 0 0 0-1.039.138 1.15 1.15 0 0 0-.483.938v14.202c0 9.021 3.85 17.62 10.42 23.598h-3.62c-2.737 0-5.026 1.972-5.552 4.582h-.114C2.542 56.127 0 58.697 0 61.855A1.14 1.14 0 0 0 1.133 63h34a1.14 1.14 0 0 0 1.134-1.145c0-3.158-2.542-5.728-5.667-5.728h-.114c-.526-2.61-2.817-4.582-5.553-4.582h-3.62c6.57-5.979 10.42-14.577 10.42-23.598V26.82l4.534 4.581v5.61a10.325 10.325 0 0 0-3.4 7.662c0 5.683 4.576 10.309 10.2 10.309 5.623 0 10.2-4.626 10.2-10.31 0-3.042-1.32-5.772-3.4-7.661V31.4l17.8-17.991c.214-.214.333-.506.333-.81V1.145c0-.462-.277-.88-.7-1.058zm-3.17 2.204l-2.266 2.29H24.27l-2.266-2.29H64.13zm-4.533 4.582l-2.266 2.29H28.803l-2.267-2.29h33.061zM20.4 3.91l8.956 9.051c-.624.212-1.252.409-1.884.584L20.4 6.4V3.91zm0 5.727l4.47 4.518c-.702.137-1.404.26-2.112.353L20.4 12.126V9.638zm4.533 44.198c1.875 0 3.4 1.542 3.4 3.437a1.14 1.14 0 0 0 1.134 1.145H30.6c1.478 0 2.738.958 3.206 2.291H2.46c.469-1.333 1.729-2.29 3.207-2.29H6.8a1.14 1.14 0 0 0 1.133-1.146c0-1.895 1.526-3.437 3.4-3.437h13.6zm4.534-25.89c0 9.11-4.222 17.761-11.334 23.313C11.022 45.71 6.8 37.057 6.8 27.947V15.345a37.312 37.312 0 0 0 22.667 0v12.602zm1.602-16.491h23.995L43.067 23.58 31.069 11.455zm12.467 18.327L31.733 17.853v-2.488l14.264 14.417h-2.461zm4.064 2.29v3.38a10.038 10.038 0 0 0-4.533-1.088c-1.63 0-3.166.398-4.534 1.088v-3.38H47.6zM31.733 23.58v-2.488l8.598 8.69h-2.462l-6.136-6.202zM51 44.673c0 4.421-3.559 8.018-7.933 8.018-4.375 0-7.934-3.597-7.934-8.018 0-4.422 3.559-8.018 7.934-8.018 4.374 0 7.933 3.596 7.933 8.018zm14.733-32.547l-17 17.182-1.23-1.244 18.23-18.426v2.488zm0-5.727L45.9 26.444 44.67 25.2 65.732 3.91V6.4z"/>
        <path d="M17 37h2v2h-2zM12 37h2v2h-2zM22 37h2v2h-2z"/>
    </g>
</svg>
