<svg xmlns="http://www.w3.org/2000/svg" width="44" height="44" viewBox="0 0 44 44">
    <g fill="none" fill-rule="nonzero">
        <path fill="#F98C96" d="M0 0h44v44H0z"/>
        <path fill="#32B1CC" d="M4 4h38v38H4z"/>
        <g fill="#FFD782">
            <path d="M16.92 4h12.16v12.16H16.92zM29.08 42H16.92V29.84h12.16zM4 16.16h12.92v13.68H4zM29.08 16.16H42v13.68H29.08z"/>
        </g>
        <path fill="#D9176C" d="M12.222 9.636h-.778V8.182c0-.402-.348-.727-.777-.727-.43 0-.778.325-.778.727v1.454H7.556V6.727c0-.401-.349-.727-.778-.727-.43 0-.778.326-.778.727v3.637c0 .401.348.727.778.727h3.11v2.182c0 .401.35.727.779.727.43 0 .777-.326.777-.727V11.09h.778c.43 0 .778-.326.778-.727 0-.402-.348-.728-.778-.728zM36.25 5h-4.5c-.414 0-.75.358-.75.8 0 .442.336.8.75.8h3.75v1.6h-3c-.414 0-.75.358-.75.8 0 .442.336.8.75.8h3v1.6h-3.75c-.414 0-.75.358-.75.8 0 .442.336.8.75.8h4.5c.414 0 .75-.358.75-.8V5.8c0-.442-.336-.8-.75-.8zM23.75 27h-3a.739.739 0 0 1-.75-.727c0-.402.336-.728.75-.728h3c.414 0 .75-.325.75-.727v-.727a.739.739 0 0 0-.75-.727h-3a.739.739 0 0 1-.75-.728v-2.909c0-.401.336-.727.75-.727h4.5c.414 0 .75.326.75.727a.739.739 0 0 1-.75.728H21.5v1.454h2.25c1.243 0 2.25.977 2.25 2.182v.727C26 26.023 24.993 27 23.75 27zM34.11 39a.773.773 0 0 1-.662-.38.82.82 0 0 1-.034-.778l2.547-5.242h-4.184a.789.789 0 0 1-.777-.8c0-.442.348-.8.777-.8h5.441a.772.772 0 0 1 .665.377.82.82 0 0 1 .035.78l-3.11 6.4a.775.775 0 0 1-.699.443z"/>
        <path fill="#F4F4E6" d="M6 33h1v1H6zM33 20h1v1h-1zM36 22h1v1h-1z"/>
    </g>
</svg>
