<svg xmlns="http://www.w3.org/2000/svg" xmlns:xlink="http://www.w3.org/1999/xlink" width="327" height="77" viewBox="0 0 327 77">
    <defs>
        <path id="a" d="M20.061 3.494S188.245-9.13 320.976 14.604l-10.539 6.938 10.52 5.673-9.832 6.369 14.658 9.375-18.372 1.956 11.736 7.5-6.381 6.443 14.177 6.971-12.047 3.898 9.794 6.248S118.405 55.817 13.444 73.022l7.871-7.621-20.069-6.496 18.872-3.744-16.138-8.21 12.518-5.7-9.058-6.837 10.33-8.157L.644 17.43l15.94-5.618L5.347 6.749"/>
        <radialGradient id="b" cx="50.142%" cy="55.1%" r="146.257%" fx="50.142%" fy="55.1%" gradientTransform="matrix(-.18239 .61979 -.1719 -.9365 .688 .756)">
            <stop offset="0%" stop-color="#FFDD87"/>
            <stop offset="100%" stop-color="#FFBF3A"/>
        </radialGradient>
        <path id="d" d="M38.895 16.58c-1.508 13.782-15.789 27.853 9.436 34.47 25.196 6.63 171.03 6.08 220.282 13.313 49.233 7.253 23.613-22.83 24.414-40.236.801-17.405-114.378-18.477-162.669-19.695C90.881 3.46 40.403 2.804 38.895 16.58zM13.444 73.022l7.871-7.621-20.069-6.496 18.872-3.744-16.138-8.21 12.518-5.7-9.058-6.837 10.33-8.157L.644 17.43l15.94-5.618L5.347 6.749S6.553 4.358 20.06 3.494c0 0 168.184-12.624 300.915 11.11l-10.539 6.938 10.52 5.673-9.832 6.369 14.658 9.375-18.372 1.956 11.736 7.5-6.381 6.443 14.177 6.971-12.047 3.898 9.794 6.248S118.405 55.817 13.444 73.022z"/>
        <radialGradient id="e" cx="50.142%" cy="55.1%" r="157.848%" fx="50.142%" fy="55.1%" gradientTransform="matrix(.18239 -.61979 .1481 .80687 .328 .417)">
            <stop offset="0%" stop-color="#FFDD87"/>
            <stop offset="100%" stop-color="#FFBF3A"/>
        </radialGradient>
    </defs>
    <g fill="none" fill-rule="evenodd">
        <g>
            <mask id="c" fill="#fff">
                <use xlink:href="#a"/>
            </mask>
            <path fill="url(#b)" d="M20.061 3.494S188.245-9.13 320.976 14.604l-10.539 6.938 10.52 5.673-9.832 6.369 14.658 9.375-18.372 1.956 11.736 7.5-6.381 6.443 14.177 6.971-12.047 3.898 9.794 6.248S118.405 55.817 13.444 73.022l7.871-7.621-20.069-6.496 18.872-3.744-16.138-8.21 12.518-5.7-9.058-6.837 10.33-8.157L.644 17.43l15.94-5.618L5.347 6.749S6.553 4.358 20.06 3.494" mask="url(#c)"/>
        </g>
        <path stroke="#98673A" stroke-width=".212" d="M20.058 3.495S188.24-9.128 320.98 14.605l-10.548 6.932 10.52 5.68-9.831 6.368 14.667 9.376-18.381 1.955 11.735 7.5-6.381 6.443 14.177 6.972-12.037 3.897 9.784 6.249S118.411 55.819 13.44 73.023l7.88-7.62-20.077-6.497 18.871-3.743-16.138-8.211 12.518-5.7-9.049-6.837 10.331-8.157L.64 17.432l15.95-5.619L5.343 6.75S6.56 4.36 20.058 3.495z"/>
        <g>
            <mask id="f" fill="#fff">
                <use xlink:href="#d"/>
            </mask>
            <path fill="url(#e)" d="M38.895 16.58C40.403 2.804 90.88 3.46 130.358 4.432c48.29 1.218 163.47 2.29 162.669 19.695-.801 17.406 24.82 47.489-24.414 40.236C219.36 57.13 73.527 57.679 48.33 51.049c-25.225-6.616-10.944-20.687-9.436-34.47zM13.444 73.022c104.961-17.205 311.246 2.953 311.246 2.953l-9.794-6.248 12.047-3.898-14.177-6.971 6.381-6.443-11.736-7.5 18.372-1.956-14.658-9.375 9.832-6.37-10.52-5.672 10.539-6.938C188.245-9.13 20.06 3.494 20.06 3.494 6.553 4.358 5.347 6.75 5.347 6.75l11.236 5.063L.643 17.43l17.128 8.827L7.44 34.414l9.058 6.838L3.98 46.95l16.138 8.21-18.872 3.744L21.315 65.4l-7.871 7.621z" mask="url(#f)"/>
        </g>
    </g>
</svg>
